{
  "templates": "templates",
  "content": "content",
  "output": "_output",
  "index": {
    "category": {
      "post": {
        "tags": {
          "base_url": "/post/tags/",
          "per_tag": {
            "template": "post_tag.html"
          }
        },
        "archive": {
          "base_url": "/post/archive/",
          "global": {
            "template": "post_archive.html"
          }
        }
      }
    }
  },
  "global_data": {
    "title": "My website"
  }
}
